27

19 11
8
t 12 3 w
r 0 4 n
h 7 2 w
t 18 9 w
f 15 6 n
h 11 2 n
h 2 7 w
h 11 1 e
68 97

18 13
7
t 5 1 w
h 3 4 e
f 0 4 w
t 14 7 n
f 11 5 n
f 17 5 e
f 16 3 e
91 92

19 17
8
h 14 16 w
r 16 15 s
f 2 3 n
h 5 10 w
h 3 11 s
h 0 7 w
h 17 13 n
t 15 6 e
62 39

4 10
7
r 1 5 e
r 2 4 n
t 1 7 e
r 3 9 e
r 0 7 n
h 2 7 n
h 1 2 n
52 32

15 7
5
f 8 5 s
h 5 2 e
t 2 1 s
t 9 3 w
h 2 6 s
12 5

13 19
5
h 9 13 w
f 3 5 w
h 6 17 n
h 6 10 s
t 4 9 s
25 52

16 4
1
t 9 2 n
2 52

17 2
9
t 12 1 w
r 8 0 s
h 4 0 w
h 16 0 e
t 2 0 w
t 15 1 s
r 6 1 e
t 14 1 s
f 7 0 s
57 88

15 7
6
f 4 6 w
h 12 3 s
f 4 5 e
r 8 2 e
h 9 2 s
r 8 0 n
78 62

6 12
4
h 5 4 n
r 2 9 n
t 2 8 n
r 5 5 n
86 3

6 3
1
t 1 1 w
57 69

18 3
9
f 13 2 e
r 14 0 s
t 11 0 n
h 3 2 s
f 16 1 s
t 0 0 e
r 5 0 s
r 1 2 e
h 10 2 s
33 7

10 6
2
f 4 0 w
h 9 4 w
6 16

11 19
6
t 0 0 e
h 10 13 s
h 6 18 s
t 5 13 n
h 4 4 n
h 4 18 e
10 20

12 2
3
t 8 1 w
t 2 1 e
r 3 1 e
45 100

9 13
10
h 8 1 e
h 0 6 w
r 1 7 n
f 4 10 w
t 6 9 n
h 1 2 w
r 1 9 n
t 5 11 e
t 1 4 e
t 4 5 n
45 22

18 3
7
f 15 2 s
f 15 2 w
t 5 1 n
r 5 1 s
t 12 0 s
t 12 1 e
r 3 1 s
1 49

14 10
1
h 5 8 w
8 33

6 12
2
h 0 10 e
h 3 5 e
91 72

20 4
9
t 5 1 s
t 11 2 s
f 6 1 e
t 11 3 n
t 2 2 w
t 7 2 e
t 12 2 w
f 4 3 e
r 1 2 w
77 66

5 11
4
h 3 6 e
f 0 3 n
t 2 7 s
t 3 2 n
24 38

11 5
10
h 5 2 n
t 5 1 s
t 6 1 e
t 0 0 w
h 5 1 e
h 3 2 w
t 5 4 w
h 0 0 e
r 9 2 n
r 2 0 e
30 80

14 5
7
r 3 3 n
h 5 2 w
t 4 4 n
t 9 2 s
f 3 4 e
f 6 3 n
r 8 3 w
1 98

19 2
10
h 14 1 w
t 0 0 e
r 15 1 n
f 3 1 e
t 16 1 s
r 2 0 e
f 18 1 n
h 17 0 n
f 6 0 s
f 11 0 w
83 52

4 7
9
t 1 6 e
t 3 3 e
t 0 0 n
h 1 0 n
t 2 3 s
t 1 3 w
t 1 2 s
r 3 4 w
f 3 3 s
49 15

15 13
3
t 1 11 w
f 5 11 n
h 0 5 n
73 23

3 6
3
r 1 1 n
f 0 2 e
r 0 2 s
17 28
