*** Darwin 19x11 ***
Turn = 0.
  01234567890
0 ....r......
1 ...........
2 .......h...
3 ...........
4 ...........
5 ...........
6 ...........
7 ..h........
8 ...........
9 ...........
0 ...........
1 .hh........
2 ...t.......
3 ...........
4 ...........
5 ......f....
6 ...........
7 ...........
8 .........t.

*** Darwin 18x13 ***
Turn = 0.
  0123456789012
0 ....f........
1 .............
2 .............
3 ....h........
4 .............
5 .t...........
6 .............
7 .............
8 .............
9 .............
0 .............
1 .....f.......
2 .............
3 .............
4 .......t.....
5 .............
6 ...f.........
7 .....f.......

*** Darwin 19x17 ***
Turn = 0.
  01234567890123456
0 .......h.........
1 .................
2 ...f.............
3 ...........h.....
4 .................
5 ..........h......
6 .................
7 .................
8 .................
9 .................
0 .................
1 .................
2 .................
3 .................
4 ................h
5 ......t..........
6 ...............r.
7 .............h...
8 .................

Turn = 39.
  01234567890123456
0 h............h...
1 r................
2 ...f.............
3 .................
4 .................
5 .................
6 ....r............
7 .................
8 .................
9 .................
0 .................
1 .................
2 .................
3 .................
4 ......t..........
5 ......t..........
6 .................
7 .................
8 ...........h.....

*** Darwin 4x10 ***
Turn = 0.
  0123456789
0 .......r..
1 ..h..r.t..
2 ....r..h..
3 .........r

Turn = 32.
  0123456789
0 r.r.r.r...
1 ..........
2 ........r.
3 .r.......r

*** Darwin 15x7 ***
Turn = 0.
  0123456
0 .......
1 .......
2 .t....h
3 .......
4 .......
5 ..h....
6 .......
7 .......
8 .....f.
9 ...t...
0 .......
1 .......
2 .......
3 .......
4 .......

Turn = 5.
  0123456
0 .......
1 .......
2 .t.....
3 .......
4 .......
5 ......h
6 .......
7 ......h
8 .....f.
9 ...t...
0 .......
1 .......
2 .......
3 .......
4 .......

Turn = 10.
  0123456
0 .......
1 .......
2 .t.....
3 .......
4 .......
5 ......h
6 .......
7 .......
8 .....f.
9 ...t...
0 .......
1 .......
2 ......h
3 .......
4 .......

*** Darwin 13x19 ***
Turn = 0.
  0123456789012345678
0 ...................
1 ...................
2 ...................
3 .....f.............
4 .........t.........
5 ...................
6 ..........h......h.
7 ...................
8 ...................
9 .............h.....
0 ...................
1 ...................
2 ...................

*** Darwin 16x4 ***
Turn = 0.
  0123
0 ....
1 ....
2 ....
3 ....
4 ....
5 ....
6 ....
7 ....
8 ....
9 ..t.
0 ....
1 ....
2 ....
3 ....
4 ....
5 ....

*** Darwin 17x2 ***
Turn = 0.
  01
0 ..
1 ..
2 t.
3 ..
4 h.
5 ..
6 .r
7 f.
8 r.
9 ..
0 ..
1 ..
2 .t
3 ..
4 .t
5 .t
6 h.

*** Darwin 15x7 ***
Turn = 0.
  0123456
0 .......
1 .......
2 .......
3 .......
4 .....ff
5 .......
6 .......
7 .......
8 r.r....
9 ..h....
0 .......
1 .......
2 ...h...
3 .......
4 .......

Turn = 62.
  0123456
0 .......
1 .......
2 .......
3 .......
4 .......
5 .......
6 .......
7 .......
8 .......
9 .......
0 .....r.
1 ......r
2 ......r
3 rr.....
4 .r.....

*** Darwin 6x12 ***
Turn = 0.
  012345678901
0 ............
1 ............
2 ........tr..
3 ............
4 ............
5 ....hr......

Turn = 3.
  012345678901
0 .........r..
1 ............
2 ....hr..t...
3 ............
4 ............
5 ............

Turn = 6.
  012345678901
0 ....hr.....r
1 ............
2 ........t...
3 ............
4 ............
5 ............

Turn = 9.
  012345678901
0 ....rr......
1 ............
2 ........t...
3 ...........r
4 ............
5 ............

Turn = 12.
  012345678901
0 ..r.........
1 ............
2 ........t...
3 ....r.......
4 ............
5 ...........r

Turn = 15.
  012345678901
0 r...........
1 ............
2 ........t...
3 ............
4 ............
5 ....r.....r.

Turn = 18.
  012345678901
0 ............
1 ............
2 ........t...
3 r...........
4 ............
5 .r.....r....

Turn = 21.
  012345678901
0 ............
1 ............
2 ........t...
3 ............
4 rr..........
5 ....r.......

Turn = 24.
  012345678901
0 ............
1 r...........
2 ........t...
3 ............
4 ....r.......
5 .r..........

Turn = 27.
  012345678901
0 .r..........
1 ............
2 ........t...
3 ............
4 .......r....
5 r...........

Turn = 30.
  012345678901
0 ....r.......
1 ............
2 ........t...
3 ............
4 ..........r.
5 ...r........

Turn = 33.
  012345678901
0 .......r....
1 ............
2 ........t...
3 ...........r
4 ............
5 ......r.....

Turn = 36.
  012345678901
0 ..........rr
1 ............
2 ........t...
3 ............
4 ............
5 .........r..

Turn = 39.
  012345678901
0 ..........r.
1 ...........r
2 ........t...
3 ............
4 ............
5 ...........r

Turn = 42.
  012345678901
0 ............
1 ............
2 ........t...
3 ..........r.
4 ...........r
5 ...........r

Turn = 45.
  012345678901
0 ............
1 ............
2 ........t...
3 ...........r
4 .........r..
5 ........r...

Turn = 48.
  012345678901
0 ...........r
1 ............
2 ........t...
3 ............
4 ......r.....
5 .....r......

Turn = 51.
  012345678901
0 ...........r
1 ............
2 ........t...
3 ............
4 ...r........
5 ..r.........

Turn = 54.
  012345678901
0 ........r...
1 ............
2 ........t...
3 ............
4 r...........
5 r...........

Turn = 57.
  012345678901
0 .....r......
1 ............
2 r.......t...
3 ............
4 r...........
5 ............

Turn = 60.
  012345678901
0 r.r.........
1 r...........
2 ........t...
3 ............
4 ............
5 ............

Turn = 63.
  012345678901
0 rr..........
1 r...........
2 ........t...
3 ............
4 ............
5 ............

Turn = 66.
  012345678901
0 ..r.........
1 r..r........
2 ........t...
3 ............
4 ............
5 ............

Turn = 69.
  012345678901
0 .....r......
1 ......r.....
2 ........t...
3 ............
4 r...........
5 ............

Turn = 72.
  012345678901
0 ........r...
1 .........r..
2 ........t...
3 ............
4 ............
5 r...........

Turn = 75.
  012345678901
0 ...........r
1 ...........r
2 ........t...
3 ............
4 ............
5 r...........

Turn = 78.
  012345678901
0 ...........r
1 .........r..
2 ........t...
3 ............
4 ............
5 r...........

Turn = 81.
  012345678901
0 ............
1 ......r.....
2 ........t...
3 ...........r
4 ............
5 r...........

Turn = 84.
  012345678901
0 ............
1 ...r........
2 ........t...
3 ............
4 ............
5 r..........r

*** Darwin 6x3 ***
Turn = 0.
  012
0 ...
1 .t.
2 ...
3 ...
4 ...
5 ...

*** Darwin 18x3 ***
Turn = 0.
  012
0 t..
1 ..r
2 ...
3 ..h
4 ...
5 r..
6 ...
7 ...
8 ...
9 ...
0 ..h
1 t..
2 ...
3 ..f
4 r..
5 ...
6 .f.
7 ...

Turn = 7.
  012
0 t..
1 ...
2 ...
3 ...
4 ...
5 ...
6 ...
7 ..r
8 ...
9 ...
0 t.h
1 t..
2 ..h
3 ..f
4 ...
5 ...
6 .f.
7 ..r

Turn = 14.
  012
0 t..
1 ...
2 ...
3 ...
4 ...
5 ...
6 ...
7 ...
8 ...
9 ...
0 trr
1 t..
2 r..
3 ...
4 r..
5 ..r
6 .f.
7 ...

Turn = 21.
  012
0 t..
1 ...
2 ...
3 ..r
4 ...
5 ...
6 ...
7 r..
8 ...
9 ...
0 .t.
1 ..r
2 ...
3 r..
4 ...
5 ...
6 rf.
7 r..

Turn = 28.
  012
0 rr.
1 r..
2 ...
3 ...
4 ..r
5 ...
6 ...
7 ...
8 ...
9 ...
0 .t.
1 ...
2 ...
3 ...
4 ...
5 ..r
6 .f.
7 rr.

*** Darwin 10x6 ***
Turn = 0.
  012345
0 ......
1 ......
2 ......
3 ......
4 f.....
5 ......
6 ......
7 ......
8 ......
9 ....h.

*** Darwin 11x19 ***
Turn = 0.
  0123456789012345678
0 t..................
1 ...................
2 ...................
3 ...................
4 ....h.............h
5 .............t.....
6 ..................h
7 ...................
8 ...................
9 ...................
0 .............h.....

*** Darwin 12x2 ***
Turn = 0.
  01
0 ..
1 ..
2 .t
3 .r
4 ..
5 ..
6 ..
7 ..
8 .t
9 ..
0 ..
1 ..

*** Darwin 9x13 ***
Turn = 0.
  0123456789012
0 ......h......
1 ..h.t..r.r...
2 .............
3 .............
4 .....t....f..
5 ...........t.
6 .........t...
7 .............
8 .h...........

Turn = 22.
  0123456789012
0 ....t........
1 h...t........
2 .............
3 .............
4 .....t....f..
5 ...........tt
6 ........tt...
7 .............
8 ............h

Turn = 44.
  0123456789012
0 ....t........
1 h...t........
2 .............
3 .............
4 .....t....f..
5 ...........tt
6 ........tt...
7 .............
8 ............h

*** Darwin 18x3 ***
Turn = 0.
  012
0 ...
1 ...
2 ...
3 .r.
4 ...
5 .r.
6 ...
7 ...
8 ...
9 ...
0 ...
1 ...
2 tt.
3 ...
4 ...
5 ..f
6 ...
7 ...

*** Darwin 14x10 ***
Turn = 0.
  0123456789
0 ..........
1 ..........
2 ..........
3 ..........
4 ..........
5 ........h.
6 ..........
7 ..........
8 ..........
9 ..........
0 ..........
1 ..........
2 ..........
3 ..........

*** Darwin 6x12 ***
Turn = 0.
  012345678901
0 ..........h.
1 ............
2 ............
3 .....h......
4 ............
5 ............

Turn = 72.
  012345678901
0 ...........h
1 ............
2 ............
3 ...........h
4 ............
5 ............

*** Darwin 20x4 ***
Turn = 0.
  0123
0 ....
1 ..r.
2 ..t.
3 ....
4 ...f
5 .t..
6 .f..
7 ..t.
8 ....
9 ....
0 ....
1 ..tt
2 ..t.
3 ....
4 ....
5 ....
6 ....
7 ....
8 ....
9 ....

Turn = 66.
  0123
0 ....
1 ....
2 ..t.
3 ....
4 .t..
5 .t..
6 .t..
7 ..t.
8 ....
9 ....
0 ....
1 ..tt
2 ..tt
3 ....
4 ....
5 ....
6 ....
7 ....
8 ....
9 ....

*** Darwin 5x11 ***
Turn = 0.
  01234567890
0 ...f.......
1 ...........
2 .......t...
3 ..t...h....
4 ...........

*** Darwin 11x5 ***
Turn = 0.
  01234
0 h....
1 .....
2 r....
3 ..h..
4 .....
5 .hh.t
6 .t...
7 .....
8 .....
9 ..r..
0 .....

*** Darwin 14x5 ***
Turn = 0.
  01234
0 .....
1 .....
2 .....
3 ...rf
4 ....t
5 ..h..
6 ...f.
7 .....
8 ...r.
9 ..t..
0 .....
1 .....
2 .....
3 .....

*** Darwin 19x2 ***
Turn = 0.
  01
0 t.
1 ..
2 r.
3 .f
4 ..
5 ..
6 f.
7 ..
8 ..
9 ..
0 ..
1 f.
2 ..
3 ..
4 .h
5 .r
6 .t
7 h.
8 .f

Turn = 52.
  01
0 rr
1 rr
2 ..
3 rr
4 ..
5 ..
6 ..
7 ..
8 ..
9 ..
0 ..
1 ..
2 .r
3 ..
4 ..
5 ..
6 rr
7 ..
8 r.

*** Darwin 4x7 ***
Turn = 0.
  0123456
0 t......
1 h.tt..t
2 ...t...
3 ...fr..

Turn = 15.
  0123456
0 t......
1 t.tt..t
2 ...t...
3 ...tt..

Turn = 30.
  0123456
0 t......
1 t.tt..t
2 ...t...
3 ...tt..

Turn = 45.
  0123456
0 t......
1 t.tt..t
2 ...t...
3 ...tt..

*** Darwin 15x13 ***
Turn = 0.
  0123456789012
0 .....h.......
1 ...........t.
2 .............
3 .............
4 .............
5 ...........f.
6 .............
7 .............
8 .............
9 .............
0 .............
1 .............
2 .............
3 .............
4 .............

Turn = 23.
  0123456789012
0 .....h.......
1 ...........t.
2 .............
3 .............
4 .............
5 ...........f.
6 .............
7 .............
8 .............
9 .............
0 .............
1 .............
2 .............
3 .............
4 .............

Turn = 46.
  0123456789012
0 .....h.......
1 ...........t.
2 .............
3 .............
4 .............
5 ...........f.
6 .............
7 .............
8 .............
9 .............
0 .............
1 .............
2 .............
3 .............
4 .............

Turn = 69.
  0123456789012
0 .....h.......
1 ...........t.
2 .............
3 .............
4 .............
5 ...........f.
6 .............
7 .............
8 .............
9 .............
0 .............
1 .............
2 .............
3 .............
4 .............

*** Darwin 3x6 ***
Turn = 0.
  012345
0 ..r...
1 .r....
2 ......
