30

5 10
1
f 0 5 w
20 1

10 8
4
r 0 3 s
h 1 4 n
t 2 2 s
t 3 5 n
15 2

6 7
1
r 0 1 e
17 1

3 3
2
r 0 2 s
f 1 2 w
20 2

9 5
1
t 0 1 w
16 1

7 6
3
r 0 2 s
h 1 3 s
t 2 5 e
12 1

5 4
1
t 0 1 n
13 2

3 3
2
t 0 1 w
h 1 1 e
16 1

3 5
2
r 0 4 w
h 1 3 e
13 2

9 9
4
t 0 6 s
r 1 6 n
h 2 7 s
t 3 3 e
14 1

6 3
3
t 0 1 s
r 1 1 n
h 2 2 e
14 2

9 4
1
f 0 1 s
18 1

9 6
1
t 0 3 n
14 2

9 6
5
f 0 1 s
h 1 3 w
r 2 1 e
t 3 3 n
t 4 3 e
16 1

6 4
5
f 0 3 e
f 1 2 e
r 2 1 n
r 3 2 n
r 4 1 e
10 2

8 7
5
f 0 5 s
h 1 6 s
r 2 5 e
f 3 5 s
h 4 2 e
15 1

6 9
5
r 0 3 e
r 1 7 e
f 2 3 s
r 3 5 n
h 4 4 s
13 2

3 7
1
f 0 3 s
13 1

8 6
4
r 0 3 w
t 1 1 e
h 2 1 s
r 3 2 s
13 1

3 8
1
r 0 6 e
16 1

9 9
1
r 0 3 s
12 2

3 7
1
f 0 5 w
17 1

8 4
7
h 0 2 e
f 1 1 s
t 2 1 e
r 3 2 w
h 4 2 s
r 5 2 w
h 6 1 w
11 1

8 3
2
h 0 1 s
r 1 2 n
16 1

4 4
1
t 0 2 s
20 2

10 7
8
t 0 6 n
f 1 1 n
r 2 2 e
r 3 1 s
t 4 1 s
t 5 6 n
f 6 6 n
h 7 2 n
18 1

4 7
1
h 0 4 s
19 2

6 5
2
t 0 1 s
t 1 3 w
10 2

4 9
3
f 0 5 e
t 1 1 w
r 2 1 s
17 1

10 10
2
t 0 9 s
f 1 5 s
17 1
